<?xml version="1.0"?>
<gpx>
	<wpt lat='39.157700297361' lon='-84.366480053448' />
	<wpt lat='39.156831980615' lon='-84.36635167108' />
	<wpt lat='39.156708397787' lon='-84.366335854256' />
	<wpt lat='39.156672126566' lon='-84.36611769871' />
	<wpt lat='39.15637729407' lon='-84.365840255236' />
	<wpt lat='39.156088857211' lon='-84.365850264215' />
	<wpt lat='39.155795373103' lon='-84.365855655202' />
	<wpt lat='39.155510228678' lon='-84.365864982102' />
	<wpt lat='39.154955467281' lon='-84.365785380767' />
	<wpt lat='39.155006197357' lon='-84.363914615317' />
	<wpt lat='39.154989258286' lon='-84.363655477072' />
	<wpt lat='39.154975222041' lon='-84.363515134961' />
	<wpt lat='39.154346408894' lon='-84.363193042654' />
	<wpt lat='39.153557610723' lon='-84.36297841773' />
	<wpt lat='39.153037344065' lon='-84.362583375491' />
	<wpt lat='39.152686641775' lon='-84.362372724054' />
	<wpt lat='39.152010472083' lon='-84.362255075149' />
	<wpt lat='39.145690529442' lon='-84.358236061043' />
	<wpt lat='39.145881852099' lon='-84.358725743911' />
	<wpt lat='39.145786226597' lon='-84.358850239793' />
	<wpt lat='39.145455119452' lon='-84.359156457654' />
	<wpt lat='39.145328438244' lon='-84.359195689756' />
	<wpt lat='39.144538920103' lon='-84.358877683226' />
	<wpt lat='39.14392751933' lon='-84.358694759702' />
	<wpt lat='39.143816529858' lon='-84.358632007502' />
	<wpt lat='39.143902898228' lon='-84.358580912537' />
	<wpt lat='39.143968555181' lon='-84.358288496811' />
	<wpt lat='39.144123997576' lon='-84.358160086055' />
	<wpt lat='39.144261502697' lon='-84.35794584461' />
	<wpt lat='39.144405629522' lon='-84.357745517124' />
	<wpt lat='39.144595521539' lon='-84.356850832779' />
	<wpt lat='39.144664001688' lon='-84.356701131989' />
	<wpt lat='39.144787802397' lon='-84.356497870837' />
	<wpt lat='39.144944208711' lon='-84.356435593296' />
	<wpt lat='39.145109374113' lon='-84.356387062077' />
	<wpt lat='39.145214064083' lon='-84.356270637442' />
	<wpt lat='39.145348886996' lon='-84.356101574455' />
	<wpt lat='39.145459779575' lon='-84.355942150656' />
	<wpt lat='39.145607133432' lon='-84.355715671633' />
	<wpt lat='39.145713248327' lon='-84.35555574492' />
	<wpt lat='39.14589995522' lon='-84.355499418531' />
	<wpt lat='39.146035742051' lon='-84.355506626968' />
	<wpt lat='39.14619164545' lon='-84.35542590924' />
	<wpt lat='39.146365067027' lon='-84.355291547332' />
	<wpt lat='39.146529897153' lon='-84.355136314486' />
	<wpt lat='39.146691374517' lon='-84.355110665862' />
	<wpt lat='39.146796902678' lon='-84.355087364171' />
	<wpt lat='39.146910728923' lon='-84.355087531809' />
	<wpt lat='39.147095172702' lon='-84.355001701121' />
	<wpt lat='39.147244370579' lon='-84.35491519988' />
	<wpt lat='39.147415235675' lon='-84.354864657004' />
	<wpt lat='39.147544736079' lon='-84.354754518796' />
	<wpt lat='39.147675996683' lon='-84.354662150223' />
	<wpt lat='39.147824775464' lon='-84.354582270686' />
	<wpt lat='39.147944008037' lon='-84.354556622062' />
	<wpt lat='39.148063282519' lon='-84.354442292903' />
	<wpt lat='39.148223837874' lon='-84.354419829402' />
	<wpt lat='39.148370395451' lon='-84.354376914058' />
	<wpt lat='39.148526173121' lon='-84.354523345907' />
	<wpt lat='39.148638322986' lon='-84.354651924301' />
	<wpt lat='39.14875483144' lon='-84.35458193541' />
	<wpt lat='39.148841500319' lon='-84.354471713383' />
	<wpt lat='39.148943005166' lon='-84.354355204929' />
	<wpt lat='39.149111146144' lon='-84.35425470591' />
	<wpt lat='39.149248609356' lon='-84.35413174339' />
	<wpt lat='39.149284190535' lon='-84.353908700947' />
	<wpt lat='39.149216716214' lon='-84.35377601542' />
	<wpt lat='39.149447172213' lon='-84.353712013617' />
	<wpt lat='39.149569461084' lon='-84.353563940749' />
	<wpt lat='39.149655467421' lon='-84.353458872938' />
	<wpt lat='39.149733263907' lon='-84.353363835253' />
	<wpt lat='39.149822296929' lon='-84.353221307538' />
	<wpt lat='39.149855220672' lon='-84.353152454132' />
	<wpt lat='39.150030821832' lon='-84.352650423521' />
	<wpt lat='39.150104187412' lon='-84.35251013113' />
	<wpt lat='39.150191274501' lon='-84.352351101625' />
	<wpt lat='39.150302767847' lon='-84.35214750315' />
	<wpt lat='39.150403015857' lon='-84.351962930123' />
	<wpt lat='39.150509846836' lon='-84.351755346888' />
	<wpt lat='39.150576244392' lon='-84.351637537602' />
	<wpt lat='39.150691125542' lon='-84.351479704892' />
	<wpt lat='39.150849274519' lon='-84.35131324406' />
	<wpt lat='39.150969815083' lon='-84.351193054936' />
	<wpt lat='39.151101001777' lon='-84.351062250753' />
	<wpt lat='39.151306666696' lon='-84.350848396971' />
	<wpt lat='39.151420936771' lon='-84.350705255019' />
	<wpt lat='39.151531432097' lon='-84.350550383642' />
	<wpt lat='39.151640802448' lon='-84.350382445991' />
	<wpt lat='39.151774371805' lon='-84.350176697117' />
	<wpt lat='39.151840349987' lon='-84.350075064576' />
	<wpt lat='39.15195194406' lon='-84.349922032961' />
	<wpt lat='39.152041827646' lon='-84.349809812375' />
	<wpt lat='39.152158958528' lon='-84.349680392843' />
	<wpt lat='39.152287955123' lon='-84.349542727286' />
	<wpt lat='39.152376712983' lon='-84.349450088266' />
	<wpt lat='39.152512453839' lon='-84.34932151773' />
	<wpt lat='39.152624069189' lon='-84.349218344032' />
	<wpt lat='39.152782851114' lon='-84.34899034808' />
	<wpt lat='39.152829148985' lon='-84.34880924855' />
	<wpt lat='39.152851543569' lon='-84.348444419338' />
	<wpt lat='39.152854444642' lon='-84.34830989765' />
	<wpt lat='39.152856782055' lon='-84.348200396271' />
	<wpt lat='39.153112009001' lon='-84.348123262462' />
	<wpt lat='39.153237679795' lon='-84.348109798702' />
	<wpt lat='39.15334133476' lon='-84.348098693335' />
	<wpt lat='39.153640114168' lon='-84.348066683306' />
	<wpt lat='39.15388361228' lon='-84.348040595287' />
	<wpt lat='39.154097979496' lon='-84.348018753881' />
	<wpt lat='39.154293098217' lon='-84.347998876983' />
	<wpt lat='39.15453414703' lon='-84.347974321608' />
	<wpt lat='39.154810925017' lon='-84.347946125999' />
	<wpt lat='39.155023363374' lon='-84.347924484973' />
	<wpt lat='39.155337475801' lon='-84.347892486076' />
	<wpt lat='39.155493265332' lon='-84.347876615466' />
	<wpt lat='39.155677228589' lon='-84.347857855391' />
	<wpt lat='39.155841816629' lon='-84.347841029703' />
	<wpt lat='39.156021920578' lon='-84.347822617674' />
	<wpt lat='39.156181254852' lon='-84.347806328951' />
	<wpt lat='39.156356452349' lon='-84.347788418527' />
	<wpt lat='39.156541384037' lon='-84.347769512751' />
	<wpt lat='39.156695294295' lon='-84.347753778675' />
	<wpt lat='39.156870510252' lon='-84.347735865958' />
	<wpt lat='39.157025543108' lon='-84.347720016958' />
	<wpt lat='39.157226335029' lon='-84.347699489808' />
	<wpt lat='39.157355564668' lon='-84.347686278161' />
	<wpt lat='39.157535730229' lon='-84.347672047261' />
	<wpt lat='39.157711648619' lon='-84.347659245541' />
	<wpt lat='39.157877994677' lon='-84.347642746943' />
	<wpt lat='39.158048886358' lon='-84.347625391492' />
	<wpt lat='39.15823679658' lon='-84.347606307929' />
	<wpt lat='39.158413902142' lon='-84.347588321216' />
	<wpt lat='39.158616543554' lon='-84.347567741352' />
	<wpt lat='39.158793088609' lon='-84.347549811609' />
	<wpt lat='39.158973310405' lon='-84.347531508611' />
	<wpt lat='39.159157261718' lon='-84.347512826789' />
</gpx>